Projet Apprentissage Léa KAISER
…
cancer.cv <- cv.glmnet(x.train,y.train,nfolds=5,family="binomial")
cancer.cv$lambda.min

## [1] 0.02368238

model.en.cv <- glmnet(x.train,y.train,family="binomial",alpha=0.5,nlambda=1,lambda=cancer.cv$lambda.min)

Finalement, le modèle retenu peut être évalué sur le jeu test

cancerpredict.en.cv <- predict(model.en.cv,x.train,type="response",family="binomial")
results <- tibble(proba=cancerpredict.en.cv,MAP=round(cancerpredict.en.cv),truth=(y.train=="yes")*1)
results

## # A tibble: 1,429 x 3
##    proba[,"s0"] MAP[,"s0"] truth[,"Y"]
##           <dbl>      <dbl>       <dbl>
##  1       0.0845          0           0
##  2       0.0998          0           0
##  3       0.415           0           0
##  4       0.365           0           1
##  5       0.560           1           1
##  6       0.185           0           0
##  7       0.223           0           0
##  8       0.312           0           0
##  9       0.308           0           1
## 10       0.0999          0           0
## # ... with 1,419 more rows
…
cancer.cv_acp <- cv.glmnet(x.train_acp,y.train_acp,nfolds=5,family="binomial" )
cancer.cv_acp$lambda.min

## [1] 0.01735749

model.en.cv_acp <- glmnet(x.train_acp,y.train_acp,family="binomial" ,alpha=0.5,nlambda=1,lambda=cancer.cv_acp$lambda.min)

Finalement, le modèle retenu peut être évalué sur le jeu test

cancerpredict.en.cv_acp <- predict(model.en.cv_acp,x.train_acp,type="response", family="binomial" )
results_acp <- tibble(proba=cancerpredict.en.cv_acp,MAP=round(cancerpredict.en.cv_acp),truth=(y.train_acp=="yes") *1 )
results_acp

## # A tibble: 1,429 x 3
##    proba[,"s0"] MAP[,"s0"] truth[,"Y"]
##           <dbl>      <dbl>       <dbl>
##  1       0.0999          0           0
##  2       0.153           0           0
##  3       0.285           0           0
##  4       0.344           0           1
##  5       0.407           0           1
##  6       0.139           0           0
##  7       0.138           0           0
##  8       0.222           0           0
##  9       0.115           0           1
## 10       0.0500          0           0
## # ... with 1,419 more rows
…
